{
    "KPlugin": {
        "Authors": [
            {
                "Email": "mgraesslin@kde.org",
                "Name": "Martin Gräßlin"
            }
        ],
        "Category": "Appearance",
        "Description": "Animation for a window going to maximize/restore from maximize",
        "Description[ar]": "تحريك النوافذ عند تكبيرها/استعادة من التكبير",
        "Description[az]": "Tam açıldıqdan sonra ölçüsü genişlnəcək/bərpa olunacaq pəncərənin animasiyası",
        "Description[bg]": "Анимация за прозорец при максимизиране/възстановяване",
        "Description[bs]": "Animacija za prozor koji ide u maksimiziranje/vraćanje iz maksimiziranja",
        "Description[ca@valencia]": "Animació per a una finestra que es maximitza/restaura des de maximització",
        "Description[ca]": "Animació per a una finestra que es maximitza/restaura des de maximització",
        "Description[cs]": "Animace okna pro maximalizaci/obnovení z maximalizace",
        "Description[da]": "Animation til et vindue der er ved at maksimere/gendanne fra maksimering",
        "Description[de]": "Animation für ein Fenster beim Maximieren und Wiederherstellen",
        "Description[el]": "Εφέ κίνησης για παράθυρο που πρόκειται να εκτελέσει μεγιστοποίηση / επαναφορά από μεγιστοποίηση",
        "Description[en_GB]": "Animation for a window going to maximise/restore from maximise",
        "Description[es]": "Animación para una ventana que se va a maximizar o restaurar de una maximización",
        "Description[et]": "Maksimeeritava või maksimeeritust taastatava akna animatsioon",
        "Description[eu]": "Leihoa maximizatzera/maximizatutik leheneratzera doanerako animazioa",
        "Description[fi]": "Animointi ikkunalle, joka suurennetaan tai palautetaan suurennuksesta",
        "Description[fr]": "Animation pour une fenêtre passant d'un état maximisé vers un état maximisé / restauré",
        "Description[gl]": "Animación das xanelas que se maximizan ou restauran maximizadas",
        "Description[he]": "שינוי גודל החלון בצורה חלקה",
        "Description[hu]": "Ablakanimáció maximalizáláskor / maximális méretről való visszaállításkor",
        "Description[ia]": "Animation per un fenestra va maximisar/restabilir ab maximizar",
        "Description[id]": "Animasi untuk jendela yang menuju ke maksimalkan/kembalikan dari maksimalkan",
        "Description[it]": "Animazione per una finestra massimizzata o ripristinata dalla massimizzazione",
        "Description[kk]": "Терезені кең жаю/қалпына қайтаруды анимациясы",
        "Description[ko]": "최대화된 창이 최소화되거나 복원될 때 사용할 애니메이션",
        "Description[lt]": "Lango išskleidimo/atkūrimo iš išskleidimo animacija",
        "Description[mr]": "चौकट मोठी/पुन्हस्थापित करताना ऍनीमेट करा",
        "Description[nb]": "Animering for et vindu som maksimeres/tilbakestilles fra maksimering",
        "Description[nds]": "Animeren för en Finster, dat maximeert/vun maximeert wedderherstellt warrt",
        "Description[nl]": "Animatie voor een venster dat gaat naar maximaliseren/herstellen vanuit maximaliseren",
        "Description[nn]": "Vindaugsanimasjon i samband med bruk av maksimering/gjenoppretting.",
        "Description[pl]": "Okna są gładko skalowane przy maksymalizacji i przy powrocie z niej",
        "Description[pt]": "Animação para uma janela que se vai maximizar/repor da maximização",
        "Description[pt_BR]": "Animação para uma janela a ser maximizada/restaurada",
        "Description[ro]": "Animație pentru o fereastră ce trece la maximizare/restabilire din maximizare",
        "Description[ru]": "Анимация для окна, которое будет максимизировано/восстановит размер после максимизации",
        "Description[sk]": "Animácia pre okno pri maximalizácii/obnovení z maximalizácie",
        "Description[sl]": "Animacija za razpenjanje okna ali obnavljanje iz razpetega okna",
        "Description[sr@ijekavian]": "Анимација при максимизовању и обнављању прозора",
        "Description[sr@ijekavianlatin]": "Animacija pri maksimizovanju i obnavljanju prozora",
        "Description[sr@latin]": "Animacija pri maksimizovanju i obnavljanju prozora",
        "Description[sr]": "Анимација при максимизовању и обнављању прозора",
        "Description[sv]": "Animering för ett fönster som ska maximeras eller återställas från maximering",
        "Description[ta]": "சாளரத்தை அதிகபட்ச பெரிதாக்கும்போதும் பழைய அளவை மீளமர்த்தும்போதும் பயன்படுத்த வேண்டிய அசைவூட்டம்",
        "Description[tr]": "Pencerenin büyütülürken veya küçültülürken gösterilecek canlandırma",
        "Description[uk]": "Анімація для вікон під час максимізації/відновлення з максимізації",
        "Description[vi]": "Hiệu ứng động cho một cửa sổ chuẩn bị phóng to hoặc khôi phục từ trạng thái phóng to",
        "Description[x-test]": "xxAnimation for a window going to maximize/restore from maximizexx",
        "Description[zh_CN]": "窗口最大化/恢复时呈现过渡动效",
        "Description[zh_TW]": "視窗最大化/回復時的動畫",
        "EnabledByDefault": true,
        "Icon": "preferences-system-windows-effect-maximize",
        "Id": "kwin4_effect_maximize",
        "License": "GPL",
        "Name": "Maximize",
        "Name[ar]": "كبّر",
        "Name[az]": "Genişləndirmək",
        "Name[bg]": "Максимизиране",
        "Name[bs]": "Maksimiziraj",
        "Name[ca@valencia]": "Maximitza",
        "Name[ca]": "Maximitza",
        "Name[cs]": "Maximalizovat",
        "Name[da]": "Maksimér",
        "Name[de]": "Maximieren",
        "Name[el]": "Μεγιστοποίηση",
        "Name[en_GB]": "Maximise",
        "Name[es]": "Maximizar",
        "Name[et]": "Maksimeerimine",
        "Name[eu]": "Maximizatu",
        "Name[fi]": "Suurentaminen",
        "Name[fr]": "Maximiser",
        "Name[ga]": "Uasmhéadaigh",
        "Name[gl]": "Maximizar",
        "Name[he]": "שינוי גודל חלק",
        "Name[hu]": "Maximalizálás",
        "Name[ia]": "Maximiza",
        "Name[id]": "Maximize",
        "Name[is]": "Hámarka",
        "Name[it]": "Massimizzazione",
        "Name[ja]": "最大化",
        "Name[ka]": "გადიდება",
        "Name[kk]": "Кең жаю",
        "Name[ko]": "최대화",
        "Name[lt]": "Išskleisti",
        "Name[mr]": "मोठी करा",
        "Name[nb]": "Maksimer",
        "Name[nds]": "Maximeren",
        "Name[nl]": "Maximaliseren",
        "Name[nn]": "Maksimer",
        "Name[pa]": "ਵੱਧੋ-ਵੱਧ",
        "Name[pl]": "Animacja maksymalizacji",
        "Name[pt]": "Maximização",
        "Name[pt_BR]": "Maximizar",
        "Name[ro]": "Maximizează",
        "Name[ru]": "Максимизировать",
        "Name[sk]": "Maximalizovať",
        "Name[sl]": "Razpni",
        "Name[sr@ijekavian]": "Максимизовање",
        "Name[sr@ijekavianlatin]": "Maksimizovanje",
        "Name[sr@latin]": "Maksimizovanje",
        "Name[sr]": "Максимизовање",
        "Name[sv]": "Maximera",
        "Name[ta]": "அதிகபட்ச பெரிதாக்குதல்",
        "Name[tr]": "Ekranı Kapla",
        "Name[ug]": "چوڭايت",
        "Name[uk]": "Максимізація",
        "Name[vi]": "Phóng to",
        "Name[x-test]": "xxMaximizexx",
        "Name[zh_CN]": "最大化过渡动画",
        "Name[zh_TW]": "最大化",
        "ServiceTypes": [
            "KWin/Effect"
        ],
        "Version": "1",
        "Website": ""
    },
    "X-KDE-Ordering": "60",
    "X-KDE-ParentApp": "",
    "X-KWin-Video-Url": "https://files.kde.org/plasma/kwin/effect-videos/maximize.ogv",
    "X-Plasma-API": "javascript",
    "X-Plasma-MainScript": "code/maximize.js"
}
